…
    ## # A tibble: 101 × 4
    ##    .threshold .metric .estimator .estimate
    ##         <dbl> <chr>   <chr>          <dbl>
    ##  1       0.85 j_index binary         0.648
    ##  2       0.86 j_index binary         0.632
    ##  3       0.83 j_index binary         0.631
    ##  4       0.79 j_index binary         0.630
    ##  5       0.75 j_index binary         0.623
    ##  6       0.78 j_index binary         0.621
    ##  7       0.8  j_index binary         0.619
    ##  8       0.7  j_index binary         0.618
    ##  9       0.84 j_index binary         0.618
    ## 10       0.76 j_index binary         0.618
    ## # … with 91 more rows
…
